Práctica dirigida 2
…
library(dplyr)

Comprobamos el tipo de variable que queremos utilizar

class(data$Región)

## [1] "character"

Creamos un summarise donde se encuentre la región y su frecuencia

data %>% 
  group_by(Región) %>% 
  summarise(Total = sum(Total))

## # A tibble: 25 × 2
##    Región       Total
##    <chr>        <dbl>
##  1 Amazonas       116
##  2 Apurímac       200
##  3 Arequipa       975
##  4 Ayacucho       227
##  5 Cajamarca      291
##  6 Callao         404
##  7 Cusco          922
##  8 Huancavelica   157
##  9 Huánuco        128
## 10 Ica            314
## # ℹ 15 more rows
Es posible crear una table que incluya tanto frecuencias como
porcentajes añadiendo una línea al comando anterior. Además, para poder
representar los resultados en un gráfico, necesitamos guardar esta tabla
en un objeto. Usemos esta tabla resumida y asignémosle el nombre
gráfico1, de manera que podamos referirnos a ella cuando creemos el
gráfico

gráfico1 <- data %>% 
  group_by(Región) %>% 
  summarise(Total = sum(Total)) %>% 
  mutate(Porcentaje = (Total / sum(Total))*100)

gráfico1

## # A tibble: 25 × 3
##    Región       Total Porcentaje
##    <chr>        <dbl>      <dbl>
##  1 Amazonas       116      0.593
##  2 Apurímac       200      1.02 
##  3 Arequipa       975      4.98 
##  4 Ayacucho       227      1.16 
##  5 Cajamarca      291      1.49 
##  6 Callao         404      2.06 
##  7 Cusco          922      4.71 
##  8 Huancavelica   157      0.802
##  9 Huánuco        128      0.654
## 10 Ica            314      1.60 
## # ℹ 15 more rows

Un breve ejemplo. Podemos realizar la misma situación, inclusive,
filtrando. En este caso, nos quedamos solamente con aquellas regiones
que tienen por sector común a la ciudadanía. Podemos filtrar de
distintas maneras.

data %>% filter(Sector_comun=="Ciudadanía") %>% 
  group_by(Región) %>% 
  summarise(Total = sum(Total)) %>% 
  mutate(Porcentaje = (Total / sum(Total))*100)

## # A tibble: 23 × 3
##    Región       Total Porcentaje
##    <chr>        <dbl>      <dbl>
##  1 Amazonas        13     0.203 
##  2 Apurímac        36     0.562 
##  3 Arequipa       368     5.74  
##  4 Ayacucho        68     1.06  
##  5 Cajamarca      191     2.98  
##  6 Callao          71     1.11  
##  7 Cusco          453     7.07  
##  8 Huancavelica    44     0.687 
##  9 Huánuco          3     0.0468
## 10 Ica             72     1.12  
## # ℹ 13 more rows
…
